\relax 
\@writefile{toc}{\contentsline {section}{\numberline {1}Login}{1}}
\@writefile{toc}{\contentsline {section}{\numberline {2}Authentication}{2}}
\@writefile{toc}{\contentsline {section}{\numberline {3}Data Input}{3}}
\@writefile{toc}{\contentsline {subsection}{\numberline {3.1}Plot Selection}{3}}
\@writefile{toc}{\contentsline {subsection}{\numberline {3.2}QR Code Scanning}{3}}
\@writefile{toc}{\contentsline {subsection}{\numberline {3.3}Main Form}{4}}
\@writefile{toc}{\contentsline {subsection}{\numberline {3.4}Comments}{4}}
